[gd_scene load_steps=3 format=2]

[ext_resource path="res://Sprites/Block.png" type="Texture" id=1]

[sub_resource type="RectangleShape2D" id=1]

custom_solver_bias = 0.0
extents = Vector2( 671.633, 650.237 )

[node name="Node" type="Node"]

[node name="Block" type="Sprite" parent="." index="0"]

texture = ExtResource( 1 )
region_rect = Rect2( 0, 0, 32, 32 )
_sections_unfolded = [ "Region" ]

[node name="StaticBody2D" type="StaticBody2D" parent="Block" index="0"]

input_pickable = false
collision_layer = 1
collision_mask = 1
constant_linear_velocity = Vector2( 0, 0 )
constant_angular_velocity = 0.0
friction = 1.0
bounce = 0.0
_sections_unfolded = [ "Transform" ]

[node name="CollisionShape2D" type="CollisionShape2D" parent="Block/StaticBody2D" index="0"]

position = Vector2( -2.38419e-07, -8.9407e-08 )
shape = SubResource( 1 )
_sections_unfolded = [ "Material", "Pause", "Transform", "Visibility" ]


