[gd_scene load_steps=3 format=2]

[ext_resource path="res://Sprites/Background.jpg" type="Texture" id=1]
[ext_resource path="res://Scripts/CreditsControl.gd" type="Script" id=2]

[node name="Node" type="Node" index="0"]

[node name="Sprite" type="Sprite" parent="." index="0"]

texture = ExtResource( 1 )

[node name="Control" type="Control" parent="." index="1"]

anchor_left = 0.0
anchor_top = 0.0
anchor_right = 0.0
anchor_bottom = 0.0
margin_right = 40.0
margin_bottom = 40.0
rect_pivot_offset = Vector2( 0, 0 )
rect_clip_content = false
mouse_filter = 0
mouse_default_cursor_shape = 0
size_flags_horizontal = 1
size_flags_vertical = 1
script = ExtResource( 2 )

[node name="RichTextLabel" type="RichTextLabel" parent="Control" index="0"]

anchor_left = 0.0
anchor_top = 0.0
anchor_right = 0.0
anchor_bottom = 0.0
margin_left = 278.0
margin_top = 94.0
margin_right = 1358.0
margin_bottom = 166.0
rect_pivot_offset = Vector2( 0, 0 )
rect_clip_content = true
mouse_filter = 0
mouse_default_cursor_shape = 0
size_flags_horizontal = 1
size_flags_vertical = 1
bbcode_enabled = false
bbcode_text = "Credits:
Code and level design: ccCam
Art: ccCam's Sister and her Friend
Idea: g12345 on #ludumdare @ irc.afternet.org

"
visible_characters = -1
percent_visible = 1.0
meta_underlined = true
tab_size = 4
text = "Credits:
Code and level design: ccCam
Art: ccCam's Sister and her Friend
Idea: g12345 on #ludumdare @ irc.afternet.org

"
scroll_active = true
scroll_following = false
selection_enabled = false
override_selected_font_color = false
_sections_unfolded = [ "BBCode", "Rect" ]

[node name="QuitButton" type="Button" parent="Control" index="1"]

anchor_left = 0.0
anchor_top = 0.0
anchor_right = 0.0
anchor_bottom = 0.0
margin_left = 355.0
margin_top = 210.0
margin_right = 395.0
margin_bottom = 230.0
rect_pivot_offset = Vector2( 0, 0 )
rect_clip_content = false
focus_mode = 2
mouse_filter = 0
mouse_default_cursor_shape = 0
size_flags_horizontal = 1
size_flags_vertical = 1
toggle_mode = false
enabled_focus_mode = 2
shortcut = null
group = null
text = "Quit"
flat = false
align = 1

[node name="MainMenuButton" type="Button" parent="Control" index="2"]

anchor_left = 0.0
anchor_top = 0.0
anchor_right = 0.0
anchor_bottom = 0.0
margin_left = 345.0
margin_top = 184.0
margin_right = 402.0
margin_bottom = 204.0
rect_pivot_offset = Vector2( 0, 0 )
rect_clip_content = false
focus_mode = 2
mouse_filter = 0
mouse_default_cursor_shape = 0
size_flags_horizontal = 1
size_flags_vertical = 1
toggle_mode = false
enabled_focus_mode = 2
shortcut = null
group = null
text = "Menu"
flat = false
align = 1

[connection signal="pressed" from="Control/QuitButton" to="Control" method="_on_QuitButton_pressed"]

[connection signal="pressed" from="Control/MainMenuButton" to="Control" method="_on_MainMenuButton_pressed"]


