[gd_scene load_steps=3 format=2]

[ext_resource path="res://Sprites/Background.jpg" type="Texture" id=1]
[ext_resource path="res://Scripts/YouDiedControl.gd" type="Script" id=2]

[node name="Node" type="Node"]

[node name="Sprite" type="Sprite" parent="." index="0"]

position = Vector2( 568, 320 )
texture = ExtResource( 1 )

[node name="Control" type="Control" parent="." index="1"]

anchor_left = 0.0
anchor_top = 0.0
anchor_right = 0.0
anchor_bottom = 0.0
margin_right = 40.0
margin_bottom = 40.0
rect_pivot_offset = Vector2( 0, 0 )
rect_clip_content = false
mouse_filter = 0
mouse_default_cursor_shape = 0
size_flags_horizontal = 1
size_flags_vertical = 1
script = ExtResource( 2 )

[node name="RichTextLabel" type="RichTextLabel" parent="Control" index="0"]

anchor_left = 0.0
anchor_top = 0.0
anchor_right = 0.0
anchor_bottom = 0.0
margin_left = 380.0
margin_top = 68.0
margin_right = 480.0
margin_bottom = 168.0
rect_scale = Vector2( 5, 5 )
rect_pivot_offset = Vector2( 0, 0 )
rect_clip_content = true
mouse_filter = 0
mouse_default_cursor_shape = 0
size_flags_horizontal = 1
size_flags_vertical = 1
bbcode_enabled = false
bbcode_text = ""
visible_characters = -1
percent_visible = 1.0
meta_underlined = true
tab_size = 4
text = "YOU DIED"
scroll_active = true
scroll_following = false
selection_enabled = false
override_selected_font_color = false
_sections_unfolded = [ "BBCode", "Rect" ]

[node name="RetryButton" type="Button" parent="Control" index="1"]

anchor_left = 0.0
anchor_top = 0.0
anchor_right = 0.0
anchor_bottom = 0.0
margin_left = 356.0
margin_top = 168.0
margin_right = 756.0
margin_bottom = 318.0
rect_pivot_offset = Vector2( 0, 0 )
rect_clip_content = false
focus_mode = 2
mouse_filter = 0
mouse_default_cursor_shape = 0
size_flags_horizontal = 1
size_flags_vertical = 1
toggle_mode = false
enabled_focus_mode = 2
shortcut = null
group = null
text = "Retry"
flat = false
align = 1
_sections_unfolded = [ "Rect" ]

[node name="QuitButton" type="Button" parent="Control" index="2"]

anchor_left = 0.0
anchor_top = 0.0
anchor_right = 0.0
anchor_bottom = 0.0
margin_left = 356.0
margin_top = 332.0
margin_right = 756.0
margin_bottom = 482.0
rect_pivot_offset = Vector2( 0, 0 )
rect_clip_content = false
focus_mode = 2
mouse_filter = 0
mouse_default_cursor_shape = 0
size_flags_horizontal = 1
size_flags_vertical = 1
toggle_mode = false
enabled_focus_mode = 2
shortcut = null
group = null
text = "Quit"
flat = false
align = 1
_sections_unfolded = [ "Rect" ]

[connection signal="pressed" from="Control/RetryButton" to="Control" method="_on_RetryButton_pressed"]

[connection signal="pressed" from="Control/QuitButton" to="Control" method="_on_QuitButton_pressed"]


