[gd_resource type="TileSet" load_steps=3 format=2]

[ext_resource path="res://Sprites/Block.png" type="Texture" id=1]

[sub_resource type="RectangleShape2D" id=1]

custom_solver_bias = 0.0
extents = Vector2( 671.633, 650.237 )

[resource]

0/name = "Block"
0/texture = ExtResource( 1 )
0/tex_offset = Vector2( 0, 0 )
0/modulate = Color( 1, 1, 1, 1 )
0/region = Rect2( 0, 0, 1341, 1299 )
0/is_autotile = false
0/occluder_offset = Vector2( 670.5, 649.5 )
0/navigation_offset = Vector2( 670.5, 649.5 )
0/shapes = [ {
"autotile_coord": Vector2( 0, 0 ),
"one_way": false,
"shape": SubResource( 1 ),
"shape_transform": Transform2D( 1, 0, 0, 1, 670.5, 649.5 )
} ]

